%YAML 1.1
%TAG !u! tag:unity3d.com,2011:
--- !u!114 &11400000
MonoBehaviour:
  m_ObjectHideFlags: 0
  m_CorrespondingSourceObject: {fileID: 0}
  m_PrefabInstance: {fileID: 0}
  m_PrefabAsset: {fileID: 0}
  m_GameObject: {fileID: 0}
  m_Enabled: 1
  m_EditorHideFlags: 0
  m_Script: {fileID: 11500000, guid: 105f02a8c0d12584c9737e8dcff91bb9, type: 3}
  m_Name: Yellow
  m_EditorClassIdentifier: 
  GlowColor: {r: 1, g: 0.8117647, b: 0.09803922, a: 1}
  GlowDescription: 2
